{
  "name": "TuyaSmartMQTTChannelKit",
  "version": "3.20.0.1",
  "summary": "A short description of TuyaSmartMQTTChannelKit.",
  "license": {
    "type": "MIT"
  },
  "authors": {
    "0x5e": "gaosen@tuya.com"
  },
  "homepage": "https://tuya.com",
  "source": {
    "http": "https://airtake-public-data-1254153901.cos.ap-shanghai.myqcloud.com/smart/app/package/sdk/ios/TuyaSmartMQTTChannelKit-3.20.0-GCM-1-rc.1.zip",
    "type": "zip"
  },
  "platforms": {
    "ios": "8.0"
  },
  "static_framework": true,
  "vendored_frameworks": "ios/*.framework",
  "dependencies": {
    "TuyaSmartBaseKit": [

    ],
    "TuyaSmartQUIC": [

    ],
    "MQTTClient": [
      "0.15.2"
    ]
  }
}
